…
> Based on these probablities, it is unlikely that any identical records
> are from unique individuals, so we can remove duplicates safely.

``` r
# Does each row repesent a unique patient record?
# Find duplicated rows based on all columns
duplicated_rows <-
  DiabetesHIDataSet_train[duplicated(DiabetesHIDataSet_train), ]

# View the duplicated rows
print(duplicated_rows)
```

    ## # A tibble: 905 x 22
    ##    Diabetes_binary HighBP HighChol CholCheck   BMI Smoker Stroke
    ##    <fct>           <fct>  <fct>    <fct>     <dbl> <fct>  <fct> 
    ##  1 No diabetes     0      0        1            22 0      0     
    ##  2 No diabetes     0      0        1            21 0      0     
    ##  3 No diabetes     0      0        1            28 0      0     
    ##  4 No diabetes     0      0        1            27 0      0     
    ##  5 No diabetes     0      0        1            22 0      0     
    ##  6 No diabetes     0      0        1            25 0      0     
    ##  7 No diabetes     0      0        1            25 0      0     
    ##  8 No diabetes     0      0        1            25 0      0     
    ##  9 No diabetes     0      0        1            23 0      0     
    ## 10 No diabetes     0      0        1            25 0      0     
    ## # i 895 more rows
    ## # i 15 more variables: HeartDiseaseorAttack <fct>, PhysActivity <fct>,
    ## #   Fruits <fct>, Veggies <fct>, HvyAlcoholConsump <fct>, AnyHealthcare <fct>,
    ## #   NoDocbcCost <fct>, GenHlth <dbl>, MentHlth <dbl>, PhysHlth <dbl>,
    ## #   DiffWalk <fct>, Sex <fct>, Age <dbl>, Education <dbl>, Income <dbl>
…
